
{
  "header": {
    "reportVersion": 2,
    "event": "Allocation failed - JavaScript heap out of memory",
    "trigger": "FatalError",
    "filename": "report.20200824.181736.8160.0.001.json",
    "dumpEventTime": "2020-08-24T18:17:36Z",
    "dumpEventTimeStamp": "1598273256296",
    "processId": 8160,
    "threadId": null,
    "cwd": "C:\\Users\\hp\\Documents\\react\\slackapp\\react-slack-clone",
    "commandLine": [
      "node",
      "C:\\Users\\hp\\Documents\\react\\slackapp\\react-slack-clone\\node_modules\\react-scripts\\scripts\\start.js"
    ],
    "nodejsVersion": "v13.9.0",
    "wordSize": 64,
    "arch": "x64",
    "platform": "win32",
    "componentVersions": {
      "node": "13.9.0",
      "v8": "7.9.317.25-node.28",
      "uv": "1.34.2",
      "zlib": "1.2.11",
      "brotli": "1.0.7",
      "ares": "1.15.0",
      "modules": "79",
      "nghttp2": "1.40.0",
      "napi": "5",
      "llhttp": "2.0.4",
      "openssl": "1.1.1d",
      "cldr": "36.0",
      "icu": "65.1",
      "tz": "2019c",
      "unicode": "12.1"
    },
    "release": {
      "name": "node",
      "headersUrl": "https://nodejs.org/download/release/v13.9.0/node-v13.9.0-headers.tar.gz",
      "sourceUrl": "https://nodejs.org/download/release/v13.9.0/node-v13.9.0.tar.gz",
      "libUrl": "https://nodejs.org/download/release/v13.9.0/win-x64/node.lib"
    },
    "osName": "Windows_NT",
    "osRelease": "10.0.18363",
    "osVersion": "Windows 10 Home",
    "osMachine": "x86_64",
    "cpus": [
      {
        "model": "Intel(R) Core(TM) i3-8130U CPU @ 2.20GHz",
        "speed": 2208,
        "user": 376546,
        "nice": 0,
        "sys": 272921,
        "idle": 3349578,
        "irq": 21140
      },
      {
        "model": "Intel(R) Core(TM) i3-8130U CPU @ 2.20GHz",
        "speed": 2208,
        "user": 398218,
        "nice": 0,
        "sys": 242015,
        "idle": 3358421,
        "irq": 2421
      },
      {
        "model": "Intel(R) Core(TM) i3-8130U CPU @ 2.20GHz",
        "speed": 2208,
        "user": 543640,
        "nice": 0,
        "sys": 249593,
        "idle": 3205406,
        "irq": 2703
      },
      {
        "model": "Intel(R) Core(TM) i3-8130U CPU @ 2.20GHz",
        "speed": 2208,
        "user": 368015,
        "nice": 0,
        "sys": 235984,
        "idle": 3394640,
        "irq": 2421
      }
    ],
    "host": "DESKTOP-8D2B5SQ"
  },
  "javascriptStack": {
    "message": "No stack.",
    "stack": [
      "Unavailable."
    ]
  },
  "nativeStack": [
    {
      "pc": "0x00007ff60f112399",
      "symbol": ""
    },
    {
      "pc": "0x00007ff60f116849",
      "symbol": ""
    },
    {
      "pc": "0x00007ff60f1156c8",
      "symbol": ""
    },
    {
      "pc": "0x00007ff60f23ab12",
      "symbol": ""
    },
    {
      "pc": "0x00007ff60fa6721e",
      "symbol": ""
    },
    {
      "pc": "0x00007ff60fa4e971",
      "symbol": ""
    },
    {
      "pc": "0x00007ff60f9159cc",
      "symbol": ""
    },
    {
      "pc": "0x00007ff60f91da2b",
      "symbol": ""
    },
    {
      "pc": "0x00007ff60f912f13",
      "symbol": ""
    },
    {
      "pc": "0x00007ff60f9116a4",
      "symbol": ""
    },
    {
      "pc": "0x00007ff60f933774",
      "symbol": ""
    },
    {
      "pc": "0x00007ff60f68da91",
      "symbol": ""
    },
    {
      "pc": "0x00007ff60feb0b6d",
      "symbol": ""
    },
    {
      "pc": "0x00007ff60fe65534",
      "symbol": ""
    },
    {
      "pc": "0x00007ff60fe3c48b",
      "symbol": ""
    },
    {
      "pc": "0x00007ff60fe3c48b",
      "symbol": ""
    },
    {
      "pc": "0x00007ff60fe3c48b",
      "symbol": ""
    },
    {
      "pc": "0x00007ff60fe3c48b",
      "symbol": ""
    },
    {
      "pc": "0x00007ff60fe3c48b",
      "symbol": ""
    },
    {
      "pc": "0x00007ff60fe3c48b",
      "symbol": ""
    },
    {
      "pc": "0x00007ff60fe39fee",
      "symbol": ""
    },
    {
      "pc": "0x00007ff60fe39bdc",
      "symbol": ""
    },
    {
      "pc": "0x00007ff60f9717c2",
      "symbol": ""
    },
    {
      "pc": "0x00007ff60f971139",
      "symbol": ""
    },
    {
      "pc": "0x00007ff60fa44e50",
      "symbol": ""
    },
    {
      "pc": "0x00007ff60f260cbf",
      "symbol": ""
    },
    {
      "pc": "0x00007ff60f263811",
      "symbol": ""
    },
    {
      "pc": "0x00007ff60f263a37",
      "symbol": ""
    },
    {
      "pc": "0x00007ff60f26226a",
      "symbol": ""
    },
    {
      "pc": "0x00007ff60f1f8bec",
      "symbol": ""
    },
    {
      "pc": "0x00007ff60f2634f0",
      "symbol": ""
    },
    {
      "pc": "0x00007ff60f0e6abc",
      "symbol": ""
    },
    {
      "pc": "0x00007ff60ff6e578",
      "symbol": ""
    },
    {
      "pc": "0x00007fffcc707bd4",
      "symbol": "BaseThreadInitThunk+20"
    },
    {
      "pc": "0x00007fffcca0ce51",
      "symbol": "RtlUserThreadStart+33"
    }
  ],
  "javascriptHeap": {
    "totalMemory": 3198976,
    "totalCommittedMemory": 3198976,
    "usedMemory": 2425984,
    "availableMemory": 2148219152,
    "memoryLimit": 2150367232,
    "heapSpaces": {
      "read_only_space": {
        "memorySize": 262144,
        "committedMemory": 262144,
        "capacity": 33040,
        "used": 33040,
        "available": 0
      },
      "new_space": {
        "memorySize": 1048576,
        "committedMemory": 1048576,
        "capacity": 1047424,
        "used": 1047416,
        "available": 8
      },
      "old_space": {
        "memorySize": 1191936,
        "committedMemory": 1191936,
        "capacity": 956000,
        "used": 952536,
        "available": 3464
      },
      "code_space": {
        "memorySize": 430080,
        "committedMemory": 430080,
        "capacity": 153472,
        "used": 153472,
        "available": 0
      },
      "map_space": {
        "memorySize": 266240,
        "committedMemory": 266240,
        "capacity": 239520,
        "used": 239520,
        "available": 0
      },
      "large_object_space": {
        "memorySize": 0,
        "committedMemory": 0,
        "capacity": 0,
        "used": 0,
        "available": 0
      },
      "code_large_object_space": {
        "memorySize": 0,
        "committedMemory": 0,
        "capacity": 0,
        "used": 0,
        "available": 0
      },
      "new_large_object_space": {
        "memorySize": 0,
        "committedMemory": 0,
        "capacity": 1047424,
        "used": 0,
        "available": 1047424
      }
    }
  },
  "resourceUsage": {
    "userCpuSeconds": 0.031,
    "kernelCpuSeconds": 0.015,
    "cpuConsumptionPercent": 4.6,
    "maxRss": 20717568,
    "pageFaults": {
      "IORequired": 5220,
      "IONotRequired": 0
    },
    "fsActivity": {
      "reads": 1,
      "writes": 5
    }
  },
  "libuv": [
  ],
  "workers": [
  ],
  "environmentVariables": {
    "ALLUSERSPROFILE": "C:\\ProgramData",
    "APPDATA": "C:\\Users\\hp\\AppData\\Roaming",
    "CommonProgramFiles": "C:\\Program Files\\Common Files",
    "CommonProgramFiles(x86)": "C:\\Program Files (x86)\\Common Files",
    "CommonProgramW6432": "C:\\Program Files\\Common Files",
    "COMPUTERNAME": "DESKTOP-8D2B5SQ",
    "ComSpec": "C:\\Windows\\system32\\cmd.exe",
    "dp0": "C:\\Users\\hp\\Documents\\react\\slackapp\\react-slack-clone\\node_modules\\.bin\\",
    "DriverData": "C:\\Windows\\System32\\Drivers\\DriverData",
    "FPS_BROWSER_APP_PROFILE_STRING": "Internet Explorer",
    "FPS_BROWSER_USER_PROFILE_STRING": "Default",
    "HOME": "C:\\Users\\hp",
    "HOMEDRIVE": "C:",
    "HOMEPATH": "\\Users\\hp",
    "INIT_CWD": "C:\\Users\\hp\\Documents\\react\\slackapp\\react-slack-clone",
    "LOCALAPPDATA": "C:\\Users\\hp\\AppData\\Local",
    "LOGONSERVER": "\\\\DESKTOP-8D2B5SQ",
    "NODE": "C:\\Program Files\\nodejs\\node.exe",
    "NODE_EXE": "C:\\Program Files\\nodejs\\\\node.exe",
    "NPM_CLI_JS": "C:\\Program Files\\nodejs\\\\node_modules\\npm\\bin\\npm-cli.js",
    "npm_config_access": "",
    "npm_config_allow_same_version": "",
    "npm_config_also": "",
    "npm_config_always_auth": "",
    "npm_config_argv": "{\"remain\":[],\"cooked\":[\"start\"],\"original\":[\"start\"]}",
    "npm_config_audit": "true",
    "npm_config_audit_level": "low",
    "npm_config_auth_type": "legacy",
    "npm_config_before": "",
    "npm_config_bin_links": "true",
    "npm_config_browser": "",
    "npm_config_ca": "",
    "npm_config_cache": "C:\\Users\\hp\\AppData\\Roaming\\npm-cache",
    "npm_config_cache_lock_retries": "10",
    "npm_config_cache_lock_stale": "60000",
    "npm_config_cache_lock_wait": "10000",
    "npm_config_cache_max": "Infinity",
    "npm_config_cache_min": "10",
    "npm_config_cafile": "",
    "npm_config_cert": "",
    "npm_config_cidr": "",
    "npm_config_color": "true",
    "npm_config_commit_hooks": "true",
    "npm_config_depth": "Infinity",
    "npm_config_description": "true",
    "npm_config_dev": "",
    "npm_config_dry_run": "",
    "npm_config_editor": "notepad.exe",
    "npm_config_engine_strict": "",
    "npm_config_fetch_retries": "2",
    "npm_config_fetch_retry_factor": "10",
    "npm_config_fetch_retry_maxtimeout": "60000",
    "npm_config_fetch_retry_mintimeout": "10000",
    "npm_config_force": "",
    "npm_config_format_package_lock": "true",
    "npm_config_fund": "true",
    "npm_config_git": "git",
    "npm_config_git_tag_version": "true",
    "npm_config_global": "",
    "npm_config_globalconfig": "C:\\Users\\hp\\AppData\\Roaming\\npm\\etc\\npmrc",
    "npm_config_globalignorefile": "C:\\Users\\hp\\AppData\\Roaming\\npm\\etc\\npmignore",
    "npm_config_global_style": "",
    "npm_config_group": "",
    "npm_config_ham_it_up": "",
    "npm_config_heading": "npm",
    "npm_config_https_proxy": "",
    "npm_config_if_present": "",
    "npm_config_ignore_prepublish": "",
    "npm_config_ignore_scripts": "",
    "npm_config_init_author_email": "",
    "npm_config_init_author_name": "",
    "npm_config_init_author_url": "",
    "npm_config_init_license": "ISC",
    "npm_config_init_module": "C:\\Users\\hp\\.npm-init.js",
    "npm_config_init_version": "1.0.0",
    "npm_config_json": "",
    "npm_config_key": "",
    "npm_config_legacy_bundling": "",
    "npm_config_link": "",
    "npm_config_local_address": "",
    "npm_config_loglevel": "notice",
    "npm_config_logs_max": "10",
    "npm_config_long": "",
    "npm_config_maxsockets": "50",
    "npm_config_message": "%s",
    "npm_config_metrics_registry": "https://registry.npmjs.org/",
    "npm_config_node_gyp": "C:\\Program Files\\nodejs\\node_modules\\npm\\node_modules\\node-gyp\\bin\\node-gyp.js",
    "npm_config_node_options": "",
    "npm_config_node_version": "13.9.0",
    "npm_config_noproxy": "",
    "npm_config_offline": "",
    "npm_config_onload_script": "",
    "npm_config_only": "",
    "npm_config_optional": "true",
    "npm_config_otp": "",
    "npm_config_package_lock": "true",
    "npm_config_package_lock_only": "",
    "npm_config_parseable": "",
    "npm_config_prefer_offline": "",
    "npm_config_prefer_online": "",
    "npm_config_prefix": "C:\\Users\\hp\\AppData\\Roaming\\npm",
    "npm_config_preid": "",
    "npm_config_production": "",
    "npm_config_progress": "true",
    "npm_config_proxy": "",
    "npm_config_read_only": "",
    "npm_config_rebuild_bundle": "true",
    "npm_config_registry": "https://registry.npmjs.org/",
    "npm_config_rollback": "true",
    "npm_config_save": "true",
    "npm_config_save_bundle": "",
    "npm_config_save_dev": "",
    "npm_config_save_exact": "",
    "npm_config_save_optional": "",
    "npm_config_save_prefix": "^",
    "npm_config_save_prod": "",
    "npm_config_scope": "",
    "npm_config_scripts_prepend_node_path": "warn-only",
    "npm_config_script_shell": "",
    "npm_config_searchexclude": "",
    "npm_config_searchlimit": "20",
    "npm_config_searchopts": "",
    "npm_config_searchstaleness": "900",
    "npm_config_send_metrics": "",
    "npm_config_shell": "C:\\Windows\\system32\\cmd.exe",
    "npm_config_shrinkwrap": "true",
    "npm_config_sign_git_commit": "",
    "npm_config_sign_git_tag": "",
    "npm_config_sso_poll_frequency": "500",
    "npm_config_sso_type": "oauth",
    "npm_config_strict_ssl": "true",
    "npm_config_tag": "latest",
    "npm_config_tag_version_prefix": "v",
    "npm_config_timing": "",
    "npm_config_tmp": "C:\\Users\\hp\\AppData\\Local\\Temp",
    "npm_config_umask": "0000",
    "npm_config_unicode": "",
    "npm_config_unsafe_perm": "true",
    "npm_config_update_notifier": "true",
    "npm_config_usage": "",
    "npm_config_user": "",
    "npm_config_userconfig": "C:\\Users\\hp\\.npmrc",
    "npm_config_user_agent": "npm/6.13.7 node/v13.9.0 win32 x64",
    "npm_config_version": "",
    "npm_config_versions": "",
    "npm_config_viewer": "browser",
    "npm_execpath": "C:\\Program Files\\nodejs\\node_modules\\npm\\bin\\npm-cli.js",
    "npm_lifecycle_event": "start",
    "npm_lifecycle_script": "react-scripts start",
    "npm_node_execpath": "C:\\Program Files\\nodejs\\node.exe",
    "npm_package_dependencies_emoji_mart": "^2.6.1",
    "npm_package_dependencies_firebase": "^5.3.0",
    "npm_package_dependencies_md5": "^2.2.1",
    "npm_package_dependencies_mime_types": "^2.1.20",
    "npm_package_dependencies_moment": "^2.22.2",
    "npm_package_dependencies_react": "^16.4.1",
    "npm_package_dependencies_react_avatar_editor": "^11.0.4",
    "npm_package_dependencies_react_color": "^2.14.1",
    "npm_package_dependencies_react_dom": "^16.4.1",
    "npm_package_dependencies_react_redux": "^5.0.7",
    "npm_package_dependencies_react_router_dom": "^4.3.1",
    "npm_package_dependencies_react_scripts": "^1.1.5",
    "npm_package_dependencies_redux": "^4.0.0",
    "npm_package_dependencies_redux_devtools_extension": "^2.13.5",
    "npm_package_dependencies_semantic_ui_css": "^2.3.3",
    "npm_package_dependencies_semantic_ui_react": "^0.82.1",
    "npm_package_dependencies_uuid": "^3.3.2",
    "npm_package_description": "This project was bootstrapped with [Create React App](https://github.com/facebookincubator/create-react-app).",
    "npm_package_gitHead": "1179bc8a16942e899760507d650f0b7441d68b38",
    "npm_package_name": "react-slack-clone",
    "npm_package_private": "true",
    "npm_package_readmeFilename": "README.md",
    "npm_package_scripts_build": "react-scripts build",
    "npm_package_scripts_eject": "react-scripts eject",
    "npm_package_scripts_start": "react-scripts start",
    "npm_package_scripts_test": "react-scripts test --env=jsdom",
    "npm_package_version": "0.1.0",
    "NPM_PREFIX_NPM_CLI_JS": "C:\\Users\\hp\\AppData\\Roaming\\npm\\node_modules\\npm\\bin\\npm-cli.js",
    "NUMBER_OF_PROCESSORS": "4",
    "OneDrive": "C:\\Users\\hp\\OneDrive",
    "OneDriveConsumer": "C:\\Users\\hp\\OneDrive",
    "OS": "Windows_NT",
    "Path": "C:\\Program Files\\nodejs\\node_modules\\npm\\node_modules\\npm-lifecycle\\node-gyp-bin;C:\\Users\\hp\\Documents\\react\\slackapp\\react-slack-clone\\node_modules\\.bin;C:\\Windows\\system32;C:\\Windows;C:\\Windows\\System32\\Wbem;C:\\Windows\\System32\\WindowsPowerShell\\v1.0\\;C:\\Windows\\System32\\OpenSSH\\;C:\\Program Files\\Git\\cmd;C:\\Program Files\\Git\\mingw64\\bin;C:\\Program Files\\Git\\usr\\bin;C:\\Program Files\\nodejs\\;C:\\Program Files\\PuTTY\\;C:\\Users\\hp\\AppData\\Local\\Microsoft\\WindowsApps;C:\\Users\\hp\\AppData\\Local\\Programs\\Microsoft VS Code\\bin;C:\\Users\\hp\\AppData\\Local\\GitHubDesktop\\bin;C:\\Users\\hp\\AppData\\Roaming\\npm;C:\\Program Files\\heroku\\bin",
    "PATHEXT": ".COM;.EXE;.BAT;.CMD;.VBS;.VBE;.JSE;.WSF;.WSH;.MSC",
    "PROCESSOR_ARCHITECTURE": "AMD64",
    "PROCESSOR_IDENTIFIER": "Intel64 Family 6 Model 142 Stepping 10, GenuineIntel",
    "PROCESSOR_LEVEL": "6",
    "PROCESSOR_REVISION": "8e0a",
    "ProgramData": "C:\\ProgramData",
    "ProgramFiles": "C:\\Program Files",
    "ProgramFiles(x86)": "C:\\Program Files (x86)",
    "ProgramW6432": "C:\\Program Files",
    "PROMPT": "$P$G",
    "PSModulePath": "C:\\Program Files\\WindowsPowerShell\\Modules;C:\\Windows\\system32\\WindowsPowerShell\\v1.0\\Modules",
    "PUBLIC": "C:\\Users\\Public",
    "SESSIONNAME": "Console",
    "SystemDrive": "C:",
    "SystemRoot": "C:\\Windows",
    "TEMP": "C:\\Users\\hp\\AppData\\Local\\Temp",
    "TMP": "C:\\Users\\hp\\AppData\\Local\\Temp",
    "USERDOMAIN": "DESKTOP-8D2B5SQ",
    "USERDOMAIN_ROAMINGPROFILE": "DESKTOP-8D2B5SQ",
    "USERNAME": "hp",
    "USERPROFILE": "C:\\Users\\hp",
    "windir": "C:\\Windows",
    "_prog": "node"
  },
  "sharedObjects": [
    "C:\\Program Files\\nodejs\\node.exe",
    "C:\\Windows\\SYSTEM32\\ntdll.dll",
    "C:\\Windows\\System32\\KERNEL32.DLL",
    "C:\\Windows\\System32\\KERNELBASE.dll",
    "C:\\Windows\\System32\\WS2_32.dll",
    "C:\\Windows\\System32\\RPCRT4.dll",
    "C:\\Windows\\SYSTEM32\\dbghelp.dll",
    "C:\\Windows\\System32\\PSAPI.DLL",
    "C:\\Windows\\System32\\ucrtbase.dll",
    "C:\\Windows\\System32\\ADVAPI32.dll",
    "C:\\Windows\\System32\\msvcrt.dll",
    "C:\\Windows\\System32\\sechost.dll",
    "C:\\Windows\\SYSTEM32\\USERENV.dll",
    "C:\\Windows\\System32\\USER32.dll",
    "C:\\Windows\\System32\\profapi.dll",
    "C:\\Windows\\System32\\win32u.dll",
    "C:\\Windows\\SYSTEM32\\IPHLPAPI.DLL",
    "C:\\Windows\\System32\\GDI32.dll",
    "C:\\Windows\\System32\\gdi32full.dll",
    "C:\\Windows\\System32\\msvcp_win.dll",
    "C:\\Windows\\System32\\CRYPT32.dll",
    "C:\\Windows\\System32\\MSASN1.dll",
    "C:\\Windows\\System32\\bcrypt.dll",
    "C:\\Windows\\SYSTEM32\\WINMM.dll",
    "C:\\Windows\\SYSTEM32\\winmmbase.dll",
    "C:\\Windows\\System32\\cfgmgr32.dll",
    "C:\\Windows\\System32\\bcryptPrimitives.dll",
    "C:\\Windows\\System32\\IMM32.DLL",
    "C:\\Windows\\System32\\powrprof.dll",
    "C:\\Windows\\System32\\UMPDC.dll",
    "C:\\Windows\\SYSTEM32\\CRYPTBASE.DLL",
    "C:\\Windows\\system32\\uxtheme.dll",
    "C:\\Windows\\System32\\combase.dll",
    "C:\\Windows\\system32\\mswsock.dll",
    "C:\\Windows\\System32\\kernel.appcore.dll",
    "C:\\Windows\\System32\\NSI.dll",
    "C:\\Windows\\SYSTEM32\\dhcpcsvc6.DLL",
    "C:\\Windows\\system32\\napinsp.dll",
    "C:\\Windows\\system32\\pnrpnsp.dll",
    "C:\\Windows\\SYSTEM32\\DNSAPI.dll",
    "C:\\Windows\\System32\\winrnr.dll",
    "C:\\Windows\\system32\\NLAapi.dll",
    "C:\\Windows\\system32\\wshbth.dll"
  ]
}